Crash with weather
…
crash %>% select(Crash_Time,rainlevel) %>% group_by(Crash_Time) %>%count()

## # A tibble: 24 x 2
## # Groups:   Crash_Time [24]
##    Crash_Time     n
##         <int> <int>
##  1          0   126
##  2          1   137
##  3          2   160
##  4          3   120
##  5          4    83
##  6          5    92
##  7          6   162
##  8          7   237
##  9          8   289
## 10          9   264
## #  with 14 more rows
…
new1

## # A tibble: 24 x 4
## # Groups:   Crash_Time [24]
##    Crash_Time     n percent high 
##         <int> <int>   <dbl> <chr>
##  1          0    17  0.0314 low  
##  2          1    22  0.0407 low  
##  3          2    14  0.0259 low  
##  4          3    11  0.0203 low  
##  5          4     9  0.0166 low  
##  6          5    13  0.0240 low  
##  7          6    17  0.0314 low  
##  8          7    26  0.0481 low  
##  9          8    31  0.0573 high 
## 10          9    27  0.0499 low  
## #  with 14 more rows
…
